VO2 Kinetics Analysis • whippr
…
Functions for analysis in the heavy- and severe-intensity domains will be added in the near future.

For making everyone’s life easier, the general function vo2_kinetics() was created. This function calls smaller separate functions that fully automate the VO2 kinetics data analysis. The following interactive tree diagram shows how each function is called:

Read the data

The first step is to read the raw data with the read_data() function. Here we are going to use the example file that comes with {whippr}, which is a file exported from the COSMED metabolic cart.

library(whippr)

raw_data <- read_data(path = system.file("example_cosmed.xlsx", package = "whippr"), metabolic_cart = "cosmed", time_column = "t")

raw_data

#> # A tibble: 754 x 119
#>        t    Rf    VT    VE   VO2  VCO2 O2exp CO2exp `VE/VO2` `VE/VCO2` `VO2/Kg`
#>    <dbl> <dbl> <dbl> <dbl> <dbl> <dbl> <dbl>  <dbl>    <dbl>     <dbl>    <dbl>
#>  1     2  8.08 1.19   9.60  380.  301.  185.   52.9     25.3      31.9     4.58
#>  2     4 23.2  0.915 21.2   864.  665.  141.   40.8     24.5      31.9    10.4 
#>  3     8 15.6  2.11  32.9  1317. 1075.  325.   97.2     25.0      30.6    15.9 
#>  4    11 20.6  1.18  24.4   894.  714.  188.   49.2     27.3      34.1    10.8 
#>  5    14 23.3  0.947 22.1   822.  647.  150.   39.4     26.9      34.1     9.90
#>  6    18 14.7  2.28  33.6  1347. 1126.  351.  108.      24.9      29.8    16.2 
#>  7    23 11.2  2.32  26.1   980.  848.  364.  107.      26.6      30.7    11.8 
#>  8    28 13.2  2.18  28.8  1147.  981.  336.  105.      25.2      29.4    13.8 
#>  9    31 17.7  1.51  26.7  1048.  860.  234.   68.8     25.5      31.0    12.6 
#> 10    35 14.2  1.68  23.8   973.  794.  257.   79.3     24.5      30.0    11.7 
#> # … with 744 more rows, and 108 more variables: R <dbl>, FeO2 <dbl>,
#> #   FeCO2 <dbl>, HR <dbl>, `VO2/HR` <dbl>, Load1 <dbl>, Load2 <dbl>,
#> #   Load3 <dbl>, Phase <dbl>, Marker <lgl>, FetO2 <dbl>, FetCO2 <dbl>,
#> #   FiO2 <dbl>, FiCO2 <dbl>, Ti <dbl>, Te <dbl>, Ttot <dbl>, `Ti/Ttot` <dbl>,
#> #   IV <dbl>, PetO2 <dbl>, PetCO2 <dbl>, `P(a-et)CO2` <dbl>, SpO2 <dbl>,
#> #   `VD(phys)` <dbl>, `VD/VT` <dbl>, `Env. Temp.` <dbl>, `Analyz. Temp.` <dbl>,
#> #   `Analyz. Press.` <dbl>, `Env. Press.` <dbl>, Batteries <dbl>, PaCO2 <dbl>,
#> #   PaO2 <dbl>, PH <dbl>, SaO2 <dbl>, `HCO3-` <dbl>, `Bias Flow` <dbl>,
#> #   `La-` <dbl>, Hb <dbl>, `Steady State` <chr>, EEm <dbl>, EEh <dbl>,
…
Additional columns

Raw data with detected outliers

The raw data with additional columns from the data cleaning process may be accessed through the data_outliers column.

results$data_outliers[[1]]

#> # A tibble: 757 x 131
#>        t    Rf    VT    VE   VO2  VCO2 O2exp CO2exp `VE/VO2` `VE/VCO2` `VO2/Kg`
#>    <dbl> <dbl> <dbl> <dbl> <dbl> <dbl> <dbl>  <dbl>    <dbl>     <dbl>    <dbl>
#>  1     0  8.08 1.19   9.60  380.  301.  185.   52.9     25.3      31.9     4.58
#>  2     2  8.08 1.19   9.60  380.  301.  185.   52.9     25.3      31.9     4.58
#>  3     4 23.2  0.915 21.2   864.  665.  141.   40.8     24.5      31.9    10.4 
#>  4     8 15.6  2.11  32.9  1317. 1075.  325.   97.2     25.0      30.6    15.9 
#>  5    11 20.6  1.18  24.4   894.  714.  188.   49.2     27.3      34.1    10.8 
#>  6    14 23.3  0.947 22.1   822.  647.  150.   39.4     26.9      34.1     9.90
#>  7    18 14.7  2.28  33.6  1347. 1126.  351.  108.      24.9      29.8    16.2 
#>  8    23 11.2  2.32  26.1   980.  848.  364.  107.      26.6      30.7    11.8 
#>  9    28 13.2  2.18  28.8  1147.  981.  336.  105.      25.2      29.4    13.8 
#> 10    31 17.7  1.51  26.7  1048.  860.  234.   68.8     25.5      31.0    12.6 
#> # … with 747 more rows, and 120 more variables: R <dbl>, FeO2 <dbl>,
#> #   FeCO2 <dbl>, HR <dbl>, `VO2/HR` <dbl>, Load1 <dbl>, Load2 <dbl>,
#> #   Load3 <dbl>, Phase <dbl>, Marker <lgl>, FetO2 <dbl>, FetCO2 <dbl>,
#> #   FiO2 <dbl>, FiCO2 <dbl>, Ti <dbl>, Te <dbl>, Ttot <dbl>, `Ti/Ttot` <dbl>,
#> #   IV <dbl>, PetO2 <dbl>, PetCO2 <dbl>, `P(a-et)CO2` <dbl>, SpO2 <dbl>,
#> #   `VD(phys)` <dbl>, `VD/VT` <dbl>, `Env. Temp.` <dbl>, `Analyz. Temp.` <dbl>,
#> #   `Analyz. Press.` <dbl>, `Env. Press.` <dbl>, Batteries <dbl>, PaCO2 <dbl>,
#> #   PaO2 <dbl>, PH <dbl>, SaO2 <dbl>, `HCO3-` <dbl>, `Bias Flow` <dbl>,
#> #   `La-` <dbl>, Hb <dbl>, `Steady State` <chr>, EEm <dbl>, EEh <dbl>,
…
Processed data

The processed data (cleaned, interpolated, time-aligned, ensemble-averaged, and bin-averaged) may be accessed through the data_processed column.

results$data_processed[[1]]

#> # A tibble: 145 x 114
#>        t    Rf    VT    VE   VO2  VCO2 O2exp CO2exp `VE/VO2` `VE/VCO2` `VO2/Kg`
#>    <dbl> <dbl> <dbl> <dbl> <dbl> <dbl> <dbl>  <dbl>    <dbl>     <dbl>    <dbl>
#>  1  -360  27.2  2.80  76.1 3140. 2825.  424.   147.     24.4      27.0     37.8
#>  2  -355  24.1  2.51  61.3 2452. 2202.  386.   128.     25.0      28.5     29.5
#>  3  -350  24.9  2.11  53.7 2218. 1922.  323.   107.     24.7      29.0     26.7
#>  4  -345  23.1  2.09  48.3 2020. 1792.  315.   109.     24.4      28.3     24.3
#>  5  -340  21.2  2.33  49.3 2027. 1833.  354.   121.     24.6      27.5     24.4
#>  6  -335  20.2  2.24  44.1 1790. 1624.  342.   116.     24.9      27.7     21.6
#>  7  -330  18.5  2.50  47.1 1863. 1751.  383.   131.     25.2      27.5     22.4
#>  8  -325  19.6  2.23  44.8 1689. 1625.  346.   114.     26.2      28.1     20.3
#>  9  -320  20.0  1.98  40.1 1526. 1457.  306.   102.     25.8      27.7     18.4
#> 10  -315  20.9  2.06  42.4 1567. 1506.  322.   104.     26.7      28.6     18.9
#> # … with 135 more rows, and 103 more variables: R <dbl>, FeO2 <dbl>,
#> #   FeCO2 <dbl>, HR <dbl>, `VO2/HR` <dbl>, Load1 <dbl>, Load2 <dbl>,
#> #   Load3 <dbl>, Phase <dbl>, FetO2 <dbl>, FetCO2 <dbl>, FiO2 <dbl>,
#> #   FiCO2 <dbl>, Ti <dbl>, Te <dbl>, Ttot <dbl>, `Ti/Ttot` <dbl>, IV <dbl>,
#> #   PetO2 <dbl>, PetCO2 <dbl>, `P(a-et)CO2` <dbl>, SpO2 <dbl>,
#> #   `VD(phys)` <dbl>, `VD/VT` <dbl>, `Env. Temp.` <dbl>, `Analyz. Temp.` <dbl>,
#> #   `Analyz. Press.` <dbl>, `Env. Press.` <dbl>, Batteries <dbl>, PaCO2 <dbl>,
#> #   PaO2 <dbl>, PH <dbl>, SaO2 <dbl>, `HCO3-` <dbl>, `Bias Flow` <dbl>,
#> #   `La-` <dbl>, Hb <dbl>, EEm <dbl>, EEh <dbl>, EEkc <dbl>, EEbsa <dbl>,
…
Fitted data

The data from the baseline and transition fits may be accessed through the data_fitted column.

results$data_fitted[[1]]

#> # A tibble: 70 x 9
#>        t   VO2 .fitted .se.fit .resid   .hat .sigma    .cooksd .std.resid
#>    <dbl> <dbl>   <dbl>   <dbl>  <dbl>  <dbl>  <dbl>      <dbl>      <dbl>
#>  1  -120  964.   1028.    15.4 -64.0  0.0400   77.6 0.0298        -0.846 
#>  2  -115 1018.   1028.    15.4 -10.4  0.04     78.8 0.000791      -0.138 
#>  3  -110 1145.   1028.    15.4 116.   0.04     74.8 0.0989         1.54  
#>  4  -105 1018.   1028.    15.4 -10.1  0.04     78.8 0.000743      -0.134 
#>  5  -100 1062.   1028.    15.4  34.2  0.04     78.5 0.00852        0.452 
#>  6   -95 1046.   1028.    15.4  18.3  0.04     78.7 0.00244        0.242 
#>  7   -90 1050.   1028.    15.4  22.1  0.04     78.7 0.00354        0.292 
#>  8   -85 1068.   1028.    15.4  39.8  0.04     78.4 0.0115         0.526 
#>  9   -80 1029.   1028.    15.4   1.16 0.04     78.8 0.00000978     0.0153
#> 10   -75  991.   1028.    15.4 -37.4  0.04     78.4 0.0102        -0.495 
#> # … with 60 more rows
…
Residuals data

The model residuals data may be accessed through the model_residuals column.

results$model_residuals[[1]]

#> # A tibble: 45 x 7
#>        t   VO2 .fitted .resid standardized_res… sqrt_abs_standard… lag_residuals
#>    <dbl> <dbl>   <dbl>  <dbl>             <dbl>              <dbl>         <dbl>
#>  1    20 1799.   1720.  78.5              1.37               1.17          NA   
#>  2    25 1960.   1999. -38.5             -0.672              0.820         78.5 
#>  3    30 2127.   2220. -93.3             -1.63               1.28         -38.5 
#>  4    35 2384.   2397. -12.5             -0.218              0.467        -93.3 
#>  5    40 2522.   2537. -15.7             -0.274              0.523        -12.5 
#>  6    45 2659.   2649.   9.61             0.167              0.409        -15.7 
#>  7    50 2755.   2738.  16.3              0.285              0.534          9.61
#>  8    55 2851.   2809.  41.6              0.726              0.852         16.3 
#>  9    60 2936.   2866.  69.7              1.22               1.10          41.6 
#> 10    65 2885.   2911. -25.5             -0.444              0.667         69.7 
#> # … with 35 more rows
…
